{
  "express": {
    "port": 3000
  },
  "crapi": {
    "token": ""
  },
  "mongodb": {
    "uri": "mongodb://localhost:27017/clanwars"
  },
  "api": {
    "player_url": "https://api.royaleapi.com/player/",
    "clan_url": "https://api.royaleapi.com/clan/2VVYQC9",
    "clan_warlog_url": "https://api.royaleapi.com/clan/2VVYQC9/warlog"
  }
}
